<?xml version="1.0" encoding="utf-8"?>
<!-- Generator: Adobe Illustrator 16.0.0, SVG Export Plug-In . SVG Version: 6.00 Build 0)  -->
<!DOCTYPE svg PUBLIC "-//W3C//DTD SVG 1.1//EN" "http://www.w3.org/Graphics/SVG/1.1/DTD/svg11.dtd">
<svg version="1.1" id="Layer_1" xmlns="http://www.w3.org/2000/svg" xmlns:xlink="http://www.w3.org/1999/xlink" x="0px" y="0px"
	 width="210px" height="62.958px" viewBox="0 0 210 62.958" enable-background="new 0 0 210 62.958" xml:space="preserve">
<g>
	<polygon fill="#FFFFFF" points="8.102,9.953 32.745,9.953 45.093,41.118 41.815,53.004 24.282,53.004 	"/>
	<polygon fill="#FFFFFF" points="37.894,9.953 62.538,9.953 74.886,41.118 71.608,53.004 54.075,53.004 	"/>
	<polygon points="68.472,9.953 84.009,9.953 76.24,29.625 	"/>
	<text transform="matrix(1.0245 0 0 1 86.9312 45.4204)" fill="#FFFFFF" font-family="'Calibri-Bold'" font-size="7.1701">Chartered Loss Adjusters &amp; Surveyors</text>
	<g>
		<polygon fill="#FFFFFF" points="88.357,18.31 90.923,18.31 93.658,28.519 97.587,18.31 98.478,18.31 102.479,28.519 
			105.016,18.31 107.582,18.31 103.12,34.561 102.202,34.561 98.095,23.469 93.81,34.561 92.901,34.561 		"/>
		<path fill="#FFFFFF" d="M110.363,18.31"/>
		<rect x="127.415" y="18.31" fill="#FFFFFF" width="2.461" height="16.251"/>
		<polygon fill="#FFFFFF" points="110.363,18.31 112.929,18.31 112.929,24.867 120.546,24.867 120.546,18.31 123.113,18.31 
			123.113,34.561 120.546,34.561 120.546,26.889 112.929,26.889 112.929,34.561 110.35,34.561 		"/>
		<polygon fill="#FFFFFF" points="132.573,18.31 143.64,18.31 143.64,20.822 139.524,20.822 139.524,34.561 136.663,34.561 
			136.663,20.822 132.573,20.822 		"/>
		<polygon fill="#FFFFFF" points="146.126,18.079 155.145,18.079 155.145,20.555 148.371,20.555 148.371,24.476 155.145,24.476 
			155.145,26.889 148.371,26.889 148.371,32.066 155.145,32.066 155.145,34.507 146.126,34.507 		"/>
		<polygon points="157.778,18.47 159.81,18.47 159.81,32.437 165.582,32.437 165.582,34.507 157.778,34.507 		"/>
		<path d="M174.74,18.47h-1.066l-6.95,16.038h2.175l2.172-5.22h6.345l2.094,5.22h2.289L174.74,18.47z M172.238,27.397l2.022-4.438
			l2.173,4.438H172.238z"/>
		<polygon points="183.153,18.47 185.47,18.47 188.194,28.627 192.098,18.47 193.167,18.47 196.988,28.627 199.582,18.47 
			201.898,18.47 197.718,34.507 196.686,34.507 192.703,23.406 188.409,34.507 187.357,34.507 		"/>
	</g>
</g>
</svg>
